Date	A1	A2	A3
13-05-2015 15:00:00	0	0	0
13-05-2015 15:10:00	0	0	0
13-05-2015 15:20:00	0	0	0
13-05-2015 15:30:00	0	0	0
13-05-2015 15:40:00	17,772	14,241	14,578
13-05-2015 15:50:00	0	0	0
13-05-2015 16:00:00	5,158	1,993	1,611
13-05-2015 16:10:00	30,761	26,76	27,42
13-05-2015 16:20:00	29,782	25,749	26,345
13-05-2015 16:30:00	29,532	26,735	26,746
13-05-2015 16:40:00	38,866	26,291	26,773
13-05-2015 16:50:00	27,219	14,277	14,466
13-05-2015 17:00:00	29,841	26,259	26,804
13-05-2015 17:10:00	18,236	14,251	14,749
13-05-2015 17:20:00	39,127	25,792	26,334
13-05-2015 17:30:00	18,171	14,146	14,488
13-05-2015 17:40:00	30,013	26,195	26,684
13-05-2015 17:50:00	38,284	25,793	29,043
13-05-2015 18:00:00	30,462	26,243	26,751
13-05-2015 18:10:00	29,793	25,736	26,255
13-05-2015 18:20:00	38,69	26,27	26,631
13-05-2015 18:30:00	34,806	26,792	26,883
13-05-2015 18:40:00	13,825	3,709	3,767
13-05-2015 18:50:00	14,538	3,755	3,719
13-05-2015 19:00:00	15,464	4,797	2,879
13-05-2015 19:10:00	12,925	1,043	5,362
13-05-2015 19:20:00	32,952	26,363	25,938
13-05-2015 19:30:00	29,892	25,436	25,56
13-05-2015 19:40:00	29,691	26,376	26,308
13-05-2015 19:50:00	30,049	25,361	25,82
13-05-2015 20:00:00	38,373	26,339	26,383
13-05-2015 20:10:00	29,599	25,664	26,23
13-05-2015 20:20:00	38,24	26,216	26,557
13-05-2015 20:30:00	26,719	14,22	14,474
13-05-2015 20:40:00	30,068	26,171	25,989
13-05-2015 20:50:00	29,66	26,029	26,502
13-05-2015 21:00:00	27,346	14,706	14,712
13-05-2015 21:10:00	39,088	25,792	26,29
13-05-2015 21:20:00	30,073	26,133	28,98
13-05-2015 21:30:00	27,159	14,193	18,124
13-05-2015 21:40:00	18,094	19,96	18,057
13-05-2015 21:50:00	35,034	39,721	30,744
13-05-2015 22:00:00	30,253	31,413	30,767
13-05-2015 22:10:00	29,426	31,318	30
13-05-2015 22:20:00	29,753	31,225	30,778
13-05-2015 22:30:00	4,28	7,86	5,178
13-05-2015 22:40:00	4,742	7,723	10,434
13-05-2015 22:50:00	4,715	6,485	6,012
13-05-2015 23:00:00	4,239	6,426	5,352
13-05-2015 23:10:00	0,929	6,638	1,807
13-05-2015 23:20:00	0,879	10,877	1,403
13-05-2015 23:30:00	0,127	6,125	1,434
13-05-2015 23:40:00	0,978	8,701	1,731
13-05-2015 23:50:00	0,908	6,842	1,444
14-05-2015 00:00:00	0,129	6,202	1,431
14-05-2015 00:10:00	0,129	6,197	4,698
14-05-2015 00:20:00	0,938	0,83	1,233
14-05-2015 00:30:00	0,114	0,898	1,182
14-05-2015 00:40:00	0,115	0,295	1,297
14-05-2015 00:50:00	5,425	0,28	1,198
14-05-2015 01:00:00	0,904	0,28	6,495
14-05-2015 01:10:00	0,113	0,278	1,219
14-05-2015 01:20:00	0,113	0,853	1,305
14-05-2015 01:30:00	0,113	0,28	1,201
14-05-2015 01:40:00	1,032	0,279	0,584
14-05-2015 01:50:00	0,113	0,277	0,584
14-05-2015 02:00:00	0,114	0,279	5,791
14-05-2015 02:10:00	0,113	0,279	1,18
14-05-2015 02:20:00	0,923	4,352	1,307
14-05-2015 02:30:00	0,905	0,277	1,197
14-05-2015 02:40:00	0,113	0,28	0,584
14-05-2015 02:50:00	0,113	0,279	0,583
14-05-2015 03:00:00	0,113	0,279	1,212
14-05-2015 03:10:00	0,113	0,277	1,182
14-05-2015 03:20:00	0,919	1,139	0,583
14-05-2015 03:30:00	0,9	0,833	1,232
14-05-2015 03:40:00	0,113	0,279	0,583
14-05-2015 03:50:00	0,113	0,279	0,583
14-05-2015 04:00:00	0,114	0,28	6,241
14-05-2015 04:10:00	0,113	0,28	1,182
14-05-2015 04:20:00	4,54	0,859	1,223
14-05-2015 04:30:00	0,113	0,279	1,203
14-05-2015 04:40:00	0,113	0,28	0,583
14-05-2015 04:50:00	0,113	0,279	0,583
14-05-2015 05:00:00	0,113	0,279	1,333
14-05-2015 05:10:00	2,891	5,7	1,182
14-05-2015 05:20:00	0,901	0,836	1,258
14-05-2015 05:30:00	0,113	0,279	1,193
14-05-2015 05:40:00	0,113	0,28	0,583
14-05-2015 05:50:00	0,113	0,28	0,583
14-05-2015 06:00:00	0,942	0,279	5,575
14-05-2015 06:10:00	0,904	0,866	6,083
14-05-2015 06:20:00	0,113	0,279	1,2
14-05-2015 06:30:00	0,113	0,28	0,583
14-05-2015 06:40:00	0,113	0,28	0,583
14-05-2015 06:50:00	4,202	0,279	1,212
14-05-2015 07:00:00	0,907	6,67	1,182
14-05-2015 07:10:00	0,113	0,28	1,241
14-05-2015 07:20:00	0,113	0,279	0,583
14-05-2015 07:30:00	0,113	0,815	0,583
14-05-2015 07:40:00	0,94	1,652	1,214
14-05-2015 07:50:00	0,906	1,634	1,233
14-05-2015 08:00:00	0,115	8,582	10,218
14-05-2015 08:10:00	0,115	8,567	10,272
14-05-2015 08:20:00	4,689	5,349	14,466
14-05-2015 08:30:00	4,24	0,844	14,894
14-05-2015 08:40:00	29,821	34,381	40,171
14-05-2015 08:50:00	29,794	33,902	39,546
14-05-2015 09:00:00	29,766	33,515	39,571
14-05-2015 09:10:00	29,578	25,966	39,554
14-05-2015 09:20:00	29,671	25,462	31,141
14-05-2015 09:30:00	32,293	25,311	39,442
14-05-2015 09:40:00	30,608	25,831	39,698
14-05-2015 09:50:00	30,434	25,657	40,295
14-05-2015 10:00:00	29,483	25,462	39,545
14-05-2015 10:10:00	29,193	25,803	39,41
14-05-2015 10:20:00	30,12	25,884	39,882
14-05-2015 10:30:00	30,038	25,348	31,418
14-05-2015 10:40:00	17,606	13,879	27,727
14-05-2015 10:50:00	29,377	25,667	31,001
14-05-2015 11:00:00	29,467	28,737	40,435
14-05-2015 11:10:00	29,778	25,72	40,365
14-05-2015 11:20:00	30,264	34,176	40,493
14-05-2015 11:30:00	29,862	25,267	40,888
14-05-2015 11:40:00	17,809	21,513	28,496
14-05-2015 11:50:00	17,951	13,874	28,21
14-05-2015 12:00:00	30,067	25,873	41,101
14-05-2015 12:10:00	18,164	15,6	19,278
14-05-2015 12:20:00	29,868	26,085	31,541
14-05-2015 12:30:00	29,521	26,015	40,363
14-05-2015 12:40:00	29,338	25,841	30,546
14-05-2015 12:50:00	29,759	33,459	40,745
14-05-2015 13:00:00	30,351	34,119	41,1
14-05-2015 13:10:00	30,444	25,547	40,706
14-05-2015 13:20:00	30,009	26,209	31,635
14-05-2015 13:30:00	30,083	33,928	40,62
14-05-2015 13:40:00	29,634	34,293	39,816
14-05-2015 13:50:00	30,273	26,006	40,907
14-05-2015 14:00:00	17,915	14,047	19,796
14-05-2015 14:10:00	4,596	1,528	15,192
14-05-2015 14:20:00	9,595	0,843	15,296
14-05-2015 14:30:00	4,693	9,553	15,253
14-05-2015 14:40:00	7,89	1,585	15,407
14-05-2015 14:50:00	5,124	1,626	15,398
14-05-2015 15:00:00	4,522	5,329	15,38
14-05-2015 15:10:00	4,762	9,56	15,417
14-05-2015 15:20:00	5,09	1,603	15,484
14-05-2015 15:30:00	4,56	0,827	15,48
14-05-2015 15:40:00	4,768	4,984	15,375
14-05-2015 15:50:00	4,696	8,614	15,354
14-05-2015 16:00:00	31,978	28,909	33,805
14-05-2015 16:10:00	32,127	33,593	42,434
14-05-2015 16:20:00	28,179	33,675	29,844
14-05-2015 16:30:00	32,594	33,918	42,389
14-05-2015 16:40:00	32,758	41,838	42,262
14-05-2015 16:50:00	33,517	33,721	42,779
14-05-2015 17:00:00	31,563	29,153	32,256
14-05-2015 17:10:00	34,68	33,853	41,684
14-05-2015 17:20:00	32,229	33,35	42,643
14-05-2015 17:30:00	31,76	33,65	32,667
14-05-2015 17:40:00	32,043	27,881	33,267
14-05-2015 17:50:00	32,166	33,481	42,569
14-05-2015 18:00:00	32,57	28,916	45,205
14-05-2015 18:10:00	32,21	34,054	37,322
14-05-2015 18:20:00	33,554	29,656	45,938
14-05-2015 18:30:00	32,216	28,119	34,767
14-05-2015 18:40:00	31,976	36,532	42,736
14-05-2015 18:50:00	32,092	33,519	42,731
14-05-2015 19:00:00	32,328	33,292	42,939
14-05-2015 19:10:00	32,075	36,189	42,664
14-05-2015 19:20:00	31,984	35,868	45,149
14-05-2015 19:30:00	32,424	33,188	33,714
14-05-2015 19:40:00	31,824	27,956	33,299
14-05-2015 19:50:00	31,821	33,043	42,394
14-05-2015 20:00:00	32,588	33,104	33,583
14-05-2015 20:10:00	28,171	33,539	38,772
14-05-2015 20:20:00	32,827	33,134	41,671
14-05-2015 20:30:00	31,916	32,952	33,444
14-05-2015 20:40:00	28,055	33,222	29,378
14-05-2015 20:50:00	6,114	12,704	16,565
14-05-2015 21:00:00	5,091	0,844	16,028
14-05-2015 21:10:00	4,541	9,014	15,406
14-05-2015 21:20:00	4,75	0,819	15,423
14-05-2015 21:30:00	4,675	9,041	15,791
14-05-2015 21:40:00	4,219	0,852	6,632
14-05-2015 21:50:00	9,065	0,397	15,488
14-05-2015 22:00:00	4,269	5,383	15,718
14-05-2015 22:10:00	4,25	9,465	15,658
14-05-2015 22:20:00	4,708	13,37	15,016
14-05-2015 22:30:00	4,638	13,662	18,765
14-05-2015 22:40:00	4,215	14,484	16,659
14-05-2015 22:50:00	4,729	6,538	14,929
14-05-2015 23:00:00	4,661	6,391	14,952
14-05-2015 23:10:00	4,212	6,181	14,081
14-05-2015 23:20:00	8,661	10,302	13,949
14-05-2015 23:30:00	4,672	6,228	20,004
14-05-2015 23:40:00	4,226	7,719	14,815
14-05-2015 23:50:00	4,225	5,962	13,902
15-05-2015 00:00:00	5,104	13,97	14,176
15-05-2015 00:10:00	4,199	5,798	13,96
15-05-2015 00:20:00	4,198	5,816	13,765
15-05-2015 00:30:00	4,572	13,329	14,52
15-05-2015 00:40:00	4,883	6,016	14,2
15-05-2015 00:50:00	4,226	13,301	14,445
15-05-2015 01:00:00	4,224	5,485	13,865
15-05-2015 01:10:00	4,728	5,463	13,823
15-05-2015 01:20:00	4,644	6,319	4,394
15-05-2015 01:30:00	4,186	5,272	13,681
15-05-2015 01:40:00	4,187	5,25	13,646
15-05-2015 01:50:00	4,189	5,271	14,137
15-05-2015 02:00:00	8,207	5,268	13,631
15-05-2015 02:10:00	7,334	5,831	4,374
15-05-2015 02:20:00	7,355	5,248	13,736
15-05-2015 02:30:00	7,739	5,29	14,171
15-05-2015 02:40:00	7,344	5,297	14,236
15-05-2015 02:50:00	7,79	5,3	4,832
15-05-2015 03:00:00	4,612	5,877	4,366
15-05-2015 03:10:00	4,17	5,286	4,367
15-05-2015 03:20:00	4,17	5,297	4,368
15-05-2015 03:30:00	4,172	5,263	5,425
15-05-2015 03:40:00	4,628	5,295	4,834
15-05-2015 03:50:00	4,607	5,819	4,362
15-05-2015 04:00:00	4,17	5,852	4,363
15-05-2015 04:10:00	4,168	5,251	4,365
15-05-2015 04:20:00	4,173	5,253	4,361
15-05-2015 04:30:00	0,074	0,187	0,914
15-05-2015 04:40:00	0,074	0,187	0,871
15-05-2015 04:50:00	1,396	0,187	0,892
15-05-2015 05:00:00	0,074	0,187	0,124
15-05-2015 05:10:00	0,074	0,187	0,127
15-05-2015 05:20:00	0,074	0,187	0,124
15-05-2015 05:30:00	0,074	0,187	0,124
15-05-2015 05:40:00	0,074	0,187	0,124
15-05-2015 05:50:00	0	0	0
15-05-2015 06:00:00	0	0	0
15-05-2015 06:10:00	0	0	0
15-05-2015 06:20:00	0	0	0
15-05-2015 06:30:00	0	0	0
15-05-2015 06:40:00	0	0	0
15-05-2015 06:50:00	0	0	0
15-05-2015 07:00:00	0	0	0
15-05-2015 07:10:00	0	0	0
15-05-2015 07:20:00	0	0	0
15-05-2015 07:30:00	0	0	0
15-05-2015 07:40:00	0	0	0
15-05-2015 07:50:00	0	0	0
15-05-2015 08:00:00	0	0	0
15-05-2015 08:10:00	0	0	0
15-05-2015 08:20:00	0	0	0
15-05-2015 08:30:00	0	0	0
15-05-2015 08:40:00	0	0	0
15-05-2015 08:50:00	0	0	0
15-05-2015 09:00:00	0	0	0
15-05-2015 09:10:00	0	0	0
15-05-2015 09:20:00	0	0	0
15-05-2015 09:30:00	0	0	0
15-05-2015 09:40:00	0	0	0
15-05-2015 09:50:00	0	0	0
15-05-2015 10:00:00	0	0	0
15-05-2015 10:10:00	0,872	0,971	12,704
15-05-2015 10:20:00	0,873	8,442	11,717
15-05-2015 10:30:00	0,076	8,423	10,336
15-05-2015 10:40:00	0,876	1,766	10,268
15-05-2015 10:50:00	0,874	0,189	10,785
15-05-2015 11:00:00	0,075	0,188	10,319
15-05-2015 11:10:00	0,915	5,529	10,116
15-05-2015 11:20:00	0,075	0,103	9,237
15-05-2015 11:30:00	0,036	0,103	0,209
15-05-2015 11:40:00	0,036	0,032	0,208
15-05-2015 11:50:00	0,036	0,032	0,208
15-05-2015 12:00:00	0,036	0,032	0,208
15-05-2015 12:10:00	0,036	0,032	0,208
15-05-2015 12:20:00	0,036	0,032	0,208
15-05-2015 12:30:00	0,036	0,032	0,208
