Date	A1	A2	A3
13-05-2015 16:00:00	0	0	0
13-05-2015 16:10:00	0	0	0
13-05-2015 16:20:00	0	0	0
13-05-2015 16:30:00	0	0	0
13-05-2015 16:40:00	0	0	0
13-05-2015 16:50:00	0	0	0
13-05-2015 17:00:00	0	0	0
13-05-2015 17:10:00	0	0	0
13-05-2015 17:20:00	0	0	0
13-05-2015 17:30:00	0	0	0
13-05-2015 17:40:00	0	0	0
13-05-2015 17:50:00	0	0	0
13-05-2015 18:00:00	0	0	0
13-05-2015 18:10:00	0	0	0
13-05-2015 18:20:00	0	0	0
13-05-2015 18:30:00	0	0	0
13-05-2015 18:40:00	0	0	0
13-05-2015 18:50:00	0	0	0
13-05-2015 19:00:00	0	0	0
13-05-2015 19:10:00	0	0	0
13-05-2015 19:20:00	0	0	0
13-05-2015 19:30:00	0	0	0
13-05-2015 19:40:00	0	0	0
13-05-2015 19:50:00	0	0	0
13-05-2015 20:00:00	0	0	0
13-05-2015 20:10:00	0	0	0
13-05-2015 20:20:00	1,386	1,517	1,335
13-05-2015 20:30:00	0,236	0,116	0,107
13-05-2015 20:40:00	0,227	0,102	0,106
13-05-2015 20:50:00	0,226	0,1	0,094
13-05-2015 21:00:00	0,219	0,1	0,158
13-05-2015 21:10:00	0,065	0,055	0,055
13-05-2015 21:20:00	2,957	9,246	7,612
13-05-2015 21:30:00	2,762	6,333	5,625
13-05-2015 21:40:00	9,465	22,283	22,325
13-05-2015 21:50:00	8,783	22,388	22,41
13-05-2015 22:00:00	8,822	24,991	23,471
13-05-2015 22:10:00	8,821	24,827	22,443
13-05-2015 22:20:00	8,717	24,805	22,42
13-05-2015 22:30:00	8,714	24,625	22,335
13-05-2015 22:40:00	10,621	36,792	33,215
13-05-2015 22:50:00	18,074	36,899	33,222
13-05-2015 23:00:00	24,16	17,833	13,562
13-05-2015 23:10:00	22,536	6,622	4,918
13-05-2015 23:20:00	22,547	6,793	4,824
13-05-2015 23:30:00	22,99	36,742	35,42
13-05-2015 23:40:00	7,432	36,992	37,668
13-05-2015 23:50:00	7,594	36,985	33,17
14-05-2015 00:00:00	17,23	33,797	34,488
14-05-2015 00:10:00	23,023	33,049	35,443
14-05-2015 00:20:00	7,855	32,725	33,144
14-05-2015 00:30:00	23,956	20,908	21,012
14-05-2015 00:40:00	22,205	34,895	37,415
14-05-2015 00:50:00	18,85	15,791	17,66
14-05-2015 01:00:00	18,827	15,784	17,701
14-05-2015 01:10:00	18,8	15,807	17,657
14-05-2015 01:20:00	18,746	15,773	17,521
14-05-2015 01:30:00	18,762	15,796	17,524
14-05-2015 01:40:00	18,749	15,798	17,523
14-05-2015 01:50:00	18,728	15,78	17,527
14-05-2015 02:00:00	18,75	15,815	17,545
14-05-2015 02:10:00	18,751	15,842	17,546
14-05-2015 02:20:00	18,749	15,801	17,53
14-05-2015 02:30:00	18,729	15,778	17,531
14-05-2015 02:40:00	18,746	15,793	17,527
14-05-2015 02:50:00	18,756	15,829	17,541
14-05-2015 03:00:00	18,746	15,838	17,533
14-05-2015 03:10:00	18,73	15,777	17,529
14-05-2015 03:20:00	18,762	15,803	17,527
14-05-2015 03:30:00	18,766	15,794	17,535
14-05-2015 03:40:00	18,721	15,803	17,524
14-05-2015 03:50:00	18,753	15,824	17,549
14-05-2015 04:00:00	18,754	15,798	17,538
14-05-2015 04:10:00	18,757	15,821	17,546
14-05-2015 04:20:00	18,738	15,791	17,584
14-05-2015 04:30:00	18,762	15,794	17,532
14-05-2015 04:40:00	18,756	15,801	17,534
14-05-2015 04:50:00	18,743	15,803	17,533
14-05-2015 05:00:00	18,756	15,79	17,53
14-05-2015 05:10:00	18,756	15,802	17,531
14-05-2015 05:20:00	18,764	15,801	17,535
14-05-2015 05:30:00	18,731	15,794	17,534
14-05-2015 05:40:00	18,772	15,801	17,532
14-05-2015 05:50:00	18,762	15,832	17,548
14-05-2015 06:00:00	18,767	15,804	17,548
14-05-2015 06:10:00	18,778	15,817	17,563
14-05-2015 06:20:00	18,761	15,805	17,534
14-05-2015 06:30:00	18,751	15,838	17,541
14-05-2015 06:40:00	18,725	15,801	17,531
14-05-2015 06:50:00	18,736	15,799	17,527
14-05-2015 07:00:00	18,763	15,805	17,534
14-05-2015 07:10:00	18,759	15,845	17,536
14-05-2015 07:20:00	18,721	15,793	17,523
14-05-2015 07:30:00	18,751	15,8	17,53
14-05-2015 07:40:00	18,758	15,808	17,536
14-05-2015 07:50:00	18,767	15,817	17,552
14-05-2015 08:00:00	18,741	15,787	17,539
14-05-2015 08:10:00	18,844	15,815	17,548
14-05-2015 08:20:00	18,861	15,798	17,52
14-05-2015 08:30:00	18,856	15,769	17,475
14-05-2015 08:40:00	6,903	7,2	7,051
14-05-2015 08:50:00	6,891	7,988	8,109
14-05-2015 09:00:00	6,938	8,906	8,596
14-05-2015 09:10:00	10,056	36,626	37,051
14-05-2015 09:20:00	3,593	7,664	8,087
14-05-2015 09:30:00	4,441	8,927	8,827
14-05-2015 09:40:00	4,757	24,633	25,8
14-05-2015 09:50:00	3,626	24,457	26,621
14-05-2015 10:00:00	2,353	8,191	8,038
14-05-2015 10:10:00	2,24	7,934	7,309
14-05-2015 10:20:00	2,134	7,698	7,186
14-05-2015 10:30:00	9,194	33,188	34,585
14-05-2015 10:40:00	17,004	33,14	36,968
14-05-2015 10:50:00	11,252	33,317	35,927
14-05-2015 11:00:00	8,212	33,281	33,36
14-05-2015 11:10:00	7,592	7,438	6,153
14-05-2015 11:20:00	19,399	33,057	36,534
14-05-2015 11:30:00	7,8	32,883	33,249
14-05-2015 11:40:00	7,313	32,92	33,2
14-05-2015 11:50:00	7,288	32,913	33,182
14-05-2015 12:00:00	7,308	32,933	33,301
14-05-2015 12:10:00	7,315	32,907	33,239
14-05-2015 12:20:00	17,151	33,016	33,331
14-05-2015 12:30:00	8,647	33,841	34,687
14-05-2015 12:40:00	22,838	33,015	33,33
14-05-2015 12:50:00	25,308	33,479	36,049
14-05-2015 13:00:00	19,88	33,296	36,519
14-05-2015 13:10:00	7,891	21,262	21,385
14-05-2015 13:20:00	7,564	20,793	20,98
14-05-2015 13:30:00	7,835	12,161	14,714
14-05-2015 13:40:00	24,297	33,241	33,632
14-05-2015 13:50:00	24,194	33,102	33,466
14-05-2015 14:00:00	28,268	33,167	37,763
14-05-2015 14:10:00	28,323	33,17	36,676
14-05-2015 14:20:00	27,576	33,222	36,572
14-05-2015 14:30:00	27,597	33,138	38,133
14-05-2015 14:40:00	23,963	33,367	38,034
14-05-2015 14:50:00	23,676	30,888	33,776
14-05-2015 15:00:00	27,904	23,397	27,42
14-05-2015 15:10:00	26,009	25,633	26,189
14-05-2015 15:20:00	26,838	38,779	40,153
14-05-2015 15:30:00	12,262	33,056	37,949
14-05-2015 15:40:00	28,504	33,242	37,979
14-05-2015 15:50:00	28,326	33,393	37,863
14-05-2015 16:00:00	26,585	33,658	38,58
14-05-2015 16:10:00	23,804	33,262	38,049
14-05-2015 16:20:00	23,787	17,109	17,543
14-05-2015 16:30:00	23,729	25,934	28,748
14-05-2015 16:40:00	27,285	17,3	20,835
14-05-2015 16:50:00	26,875	26,917	29,687
14-05-2015 17:00:00	27,176	25,284	28,733
14-05-2015 17:10:00	28,048	33,144	33,693
14-05-2015 17:20:00	23,859	33,143	34,818
14-05-2015 17:30:00	27,719	33,284	37,94
14-05-2015 17:40:00	28,417	33,247	37,994
14-05-2015 17:50:00	28,082	32,336	35,591
14-05-2015 18:00:00	28,584	33,319	37,977
14-05-2015 18:10:00	28,156	33,279	37,986
14-05-2015 18:20:00	27,199	32,277	36,579
14-05-2015 18:30:00	19,159	33,047	35,668
14-05-2015 18:40:00	19,566	32,971	33,535
14-05-2015 18:50:00	20,897	22,88	26,644
14-05-2015 19:00:00	21,454	21,087	24,453
14-05-2015 19:10:00	20,223	25,306	27,932
14-05-2015 19:20:00	21,387	31,377	33,524
14-05-2015 19:30:00	18,838	31,241	33,57
14-05-2015 19:40:00	21,522	33,128	37,828
14-05-2015 19:50:00	21,924	33,261	38,014
14-05-2015 20:00:00	21,692	33,084	37,99
14-05-2015 20:10:00	20,158	32,536	33,331
14-05-2015 20:20:00	21,509	24,232	26,015
14-05-2015 20:30:00	21,544	33,072	37,301
14-05-2015 20:40:00	22,1	33,368	38,013
14-05-2015 20:50:00	18,785	33,321	37,929
14-05-2015 21:00:00	17,297	32,989	33,515
14-05-2015 21:10:00	21,184	20,938	23,557
14-05-2015 21:20:00	21,736	24,524	26,03
14-05-2015 21:30:00	21,057	17,798	19,955
14-05-2015 21:40:00	21,087	20,01	21,012
14-05-2015 21:50:00	21,38	33,398	37,892
14-05-2015 22:00:00	18,41	34,01	37,879
14-05-2015 22:10:00	22,043	33,346	37,013
14-05-2015 22:20:00	16,474	17,237	17,377
14-05-2015 22:30:00	20,516	21,458	22,61
14-05-2015 22:40:00	16,588	18,244	18,915
14-05-2015 22:50:00	17,6	25,414	26,247
14-05-2015 23:00:00	20,297	26,891	31,304
14-05-2015 23:10:00	17,69	28,827	29,464
14-05-2015 23:20:00	17,713	26,042	26,647
14-05-2015 23:30:00	28,792	26,008	27,975
14-05-2015 23:40:00	32,02	26,018	26,378
14-05-2015 23:50:00	32,048	25,665	28,236
15-05-2015 00:00:00	13,466	15,265	15,511
15-05-2015 00:10:00	13,461	15,276	15,42
15-05-2015 00:20:00	13,482	18,001	22,408
15-05-2015 00:30:00	13,38	29,442	29,874
15-05-2015 00:40:00	2,067	16,928	19,036
15-05-2015 00:50:00	1,157	16,93	19,034
15-05-2015 01:00:00	0,69	16,933	18,994
15-05-2015 01:10:00	0,688	20,93	18,996
15-05-2015 01:20:00	0,681	21,63	18,976
15-05-2015 01:30:00	0,513	4,397	0,513
15-05-2015 01:40:00	0,141	4,389	0
15-05-2015 01:50:00	0,141	4,203	0
15-05-2015 02:00:00	0,141	4,202	0
15-05-2015 02:10:00	0,14	4,2	0
15-05-2015 02:20:00	0,141	4,204	0
15-05-2015 02:30:00	0,14	4,193	0
15-05-2015 02:40:00	0	0	0
15-05-2015 02:50:00	0	0	0
15-05-2015 03:00:00	0	0	0
15-05-2015 03:10:00	0	0	0
15-05-2015 03:20:00	0	0	0
15-05-2015 03:30:00	0	0	0
15-05-2015 03:40:00	0	0	0
15-05-2015 03:50:00	0	0	0
15-05-2015 04:00:00	0	0	0
15-05-2015 04:10:00	0	0	0
15-05-2015 04:20:00	0	0	0
15-05-2015 04:30:00	0	0	0
15-05-2015 04:40:00	0	0	0
15-05-2015 04:50:00	0	0	0
15-05-2015 05:00:00	0	0	0
15-05-2015 05:10:00	0	0	0
15-05-2015 05:20:00	0	0	0
15-05-2015 05:30:00	0	0	0
15-05-2015 05:40:00	0	0	0
15-05-2015 05:50:00	0	0	0
15-05-2015 06:00:00	0	0	0
15-05-2015 06:10:00	0	0	0
15-05-2015 06:20:00	0	0	0
15-05-2015 06:30:00	0	0	0
15-05-2015 06:40:00	0	0	0
15-05-2015 06:50:00	0	0	0
15-05-2015 07:00:00	0	0	0
15-05-2015 07:10:00	0	0	0
15-05-2015 07:20:00	0	0	0
15-05-2015 07:30:00	0	0	0
15-05-2015 07:40:00	0	0	0
15-05-2015 07:50:00	0	0	0
15-05-2015 08:00:00	0	0	0
15-05-2015 08:10:00	0	0	0
15-05-2015 08:20:00	0	0	0
15-05-2015 08:30:00	0	0	0
15-05-2015 08:40:00	0	0	0
15-05-2015 08:50:00	0	0	0
15-05-2015 09:00:00	0	0	0
15-05-2015 09:10:00	0	0	0
15-05-2015 09:20:00	0	0	0
15-05-2015 09:30:00	0	0	0
15-05-2015 09:40:00	0	0	0
15-05-2015 09:50:00	0	0	0
15-05-2015 10:00:00	0	0	0
15-05-2015 10:10:00	0	0	0
15-05-2015 10:20:00	0	0	0
15-05-2015 10:30:00	0	0	0
15-05-2015 10:40:00	0	0	0
15-05-2015 10:50:00	0	0	0
15-05-2015 11:00:00	0	0	0
15-05-2015 11:10:00	0	0	0
15-05-2015 11:20:00	0	0	0
15-05-2015 11:30:00	0	0	0
15-05-2015 11:40:00	0	0	0
15-05-2015 11:50:00	0	0	0
15-05-2015 12:00:00	0	0	0
15-05-2015 12:10:00	0	0	0
15-05-2015 12:20:00	0	0	0
15-05-2015 12:30:00	0	0	0
