Date	A1	A2	A3
13-05-2015 19:00:00	0	0	0
13-05-2015 19:10:00	0	0	0
13-05-2015 19:20:00	0	0	0
13-05-2015 19:30:00	2,812	2,739	0
13-05-2015 19:40:00	2,928	2,875	0
13-05-2015 19:50:00	2,884	2,906	0
13-05-2015 20:00:00	2,861	2,755	0
13-05-2015 20:10:00	2,888	2,745	0
13-05-2015 20:20:00	2,853	2,736	0
13-05-2015 20:30:00	0,141	0,244	0
13-05-2015 20:40:00	0	0	0
13-05-2015 20:50:00	0	0	0
13-05-2015 21:00:00	0	0,28	0
13-05-2015 21:10:00	0	0,26	0
13-05-2015 21:20:00	0	0,259	0
13-05-2015 21:30:00	0	0	0
13-05-2015 21:40:00	0	0	0
13-05-2015 21:50:00	0	0	0
13-05-2015 22:00:00	0	0	0
13-05-2015 22:10:00	0	0	0
13-05-2015 22:20:00	0	0	0
13-05-2015 22:30:00	0	0	0
13-05-2015 22:40:00	0	0	0
13-05-2015 22:50:00	0	0	0
13-05-2015 23:00:00	2,645	4,361	0
13-05-2015 23:10:00	2,592	2,74	0
13-05-2015 23:20:00	2,279	2,862	0
13-05-2015 23:30:00	2,379	2,706	0
13-05-2015 23:40:00	2,413	2,71	0
13-05-2015 23:50:00	2,482	2,706	0
14-05-2015 00:00:00	2,52	2,695	0
14-05-2015 00:10:00	2,5	2,689	0
14-05-2015 00:20:00	2,534	2,677	0
14-05-2015 00:30:00	2,47	2,607	0
14-05-2015 00:40:00	2,474	2,609	0
14-05-2015 00:50:00	2,461	2,617	0
14-05-2015 01:00:00	2,488	2,617	0
14-05-2015 01:10:00	2,495	2,615	0
14-05-2015 01:20:00	2,495	2,62	0
14-05-2015 01:30:00	2,478	2,62	0
14-05-2015 01:40:00	2,475	2,622	0
14-05-2015 01:50:00	2,482	2,624	0
14-05-2015 02:00:00	2,462	2,623	0
14-05-2015 02:10:00	2,431	2,622	0
14-05-2015 02:20:00	2,451	2,624	0
14-05-2015 02:30:00	2,49	2,623	0
14-05-2015 02:40:00	2,445	2,623	0
14-05-2015 02:50:00	2,437	2,63	0
14-05-2015 03:00:00	2,451	2,627	0
14-05-2015 03:10:00	2,487	2,623	0
14-05-2015 03:20:00	2,49	2,626	0
14-05-2015 03:30:00	2,471	2,627	0
14-05-2015 03:40:00	2,483	2,627	0
14-05-2015 03:50:00	2,462	2,625	0
14-05-2015 04:00:00	2,468	2,629	0
14-05-2015 04:10:00	2,503	2,625	0
14-05-2015 04:20:00	2,521	2,625	0
14-05-2015 04:30:00	2,528	2,627	0
14-05-2015 04:40:00	2,52	2,625	0
14-05-2015 04:50:00	2,495	2,625	0
14-05-2015 05:00:00	2,5	2,627	0
14-05-2015 05:10:00	2,476	2,626	0
14-05-2015 05:20:00	2,465	2,625	0
14-05-2015 05:30:00	2,47	2,627	0
14-05-2015 05:40:00	2,469	2,627	0
14-05-2015 05:50:00	2,486	2,628	0
14-05-2015 06:00:00	2,494	2,631	0
14-05-2015 06:10:00	2,52	2,628	0
14-05-2015 06:20:00	2,498	2,63	0
14-05-2015 06:30:00	2,53	2,628	0
14-05-2015 06:40:00	2,517	2,63	0
14-05-2015 06:50:00	2,526	2,626	0
14-05-2015 07:00:00	2,515	2,631	0
14-05-2015 07:10:00	2,507	2,628	0
14-05-2015 07:20:00	2,508	2,631	0
14-05-2015 07:30:00	2,508	2,625	0
14-05-2015 07:40:00	2,523	2,627	0
14-05-2015 07:50:00	2,512	2,629	0
14-05-2015 08:00:00	2,508	2,625	0
14-05-2015 08:10:00	2,492	2,628	0
14-05-2015 08:20:00	2,527	2,631	0
14-05-2015 08:30:00	2,503	2,629	0
14-05-2015 08:40:00	2,699	2,627	0
14-05-2015 08:50:00	2,704	2,798	0
14-05-2015 09:00:00	2,738	2,608	4,418
14-05-2015 09:10:00	2,796	2,588	5,414
14-05-2015 09:20:00	2,801	2,606	5,556
14-05-2015 09:30:00	2,758	2,614	5,674
14-05-2015 09:40:00	2,765	2,629	5,684
14-05-2015 09:50:00	2,807	2,854	5,741
14-05-2015 10:00:00	2,809	2,869	5,778
14-05-2015 10:10:00	2,764	2,883	5,806
14-05-2015 10:20:00	2,78	2,969	5,835
14-05-2015 10:30:00	2,827	2,918	5,92
14-05-2015 10:40:00	2,827	2,895	5,943
14-05-2015 10:50:00	2,757	2,892	5,912
14-05-2015 11:00:00	2,765	2,861	5,926
14-05-2015 11:10:00	2,807	2,838	5,946
14-05-2015 11:20:00	2,786	2,868	6,088
14-05-2015 11:30:00	2,776	2,87	15,01
14-05-2015 11:40:00	2,791	2,796	14,937
14-05-2015 11:50:00	14,978	11,291	14,563
14-05-2015 12:00:00	14,857	11,356	5,985
14-05-2015 12:10:00	14,754	10,991	6,146
14-05-2015 12:20:00	14,562	11,111	6,095
14-05-2015 12:30:00	16,262	10,959	6,132
14-05-2015 12:40:00	16,346	11,662	6,161
14-05-2015 12:50:00	25,239	12,077	6,146
14-05-2015 13:00:00	17,583	11,984	6,163
14-05-2015 13:10:00	16,598	11,883	6,116
14-05-2015 13:20:00	16,471	11,913	6,089
14-05-2015 13:30:00	16,367	11,819	6,21
14-05-2015 13:40:00	14,425	12,164	6,32
14-05-2015 13:50:00	19,465	11,865	6,281
14-05-2015 14:00:00	13,562	11,803	6,546
14-05-2015 14:10:00	23,038	11,917	6,186
14-05-2015 14:20:00	13,988	11,834	1,905
14-05-2015 14:30:00	15,188	11,884	1,931
14-05-2015 14:40:00	15,696	11,892	1,911
14-05-2015 14:50:00	15,82	11,848	1,901
14-05-2015 15:00:00	24,686	12,063	1,914
14-05-2015 15:10:00	23,658	11,912	9,682
14-05-2015 15:20:00	16,254	11,983	22,823
14-05-2015 15:30:00	14,163	12,172	16,933
14-05-2015 15:40:00	14,386	12,182	23,332
14-05-2015 15:50:00	14,514	12,367	23,339
14-05-2015 16:00:00	14,873	12,553	18,259
14-05-2015 16:10:00	14,579	12,599	14,102
14-05-2015 16:20:00	13,976	12,331	14,08
14-05-2015 16:30:00	22,748	12,032	17,323
14-05-2015 16:40:00	14,411	12,184	17,24
14-05-2015 16:50:00	12,848	12,13	19,724
14-05-2015 17:00:00	15,421	12,715	18,208
14-05-2015 17:10:00	16,459	13,012	18,53
14-05-2015 17:20:00	16,222	12,866	18,878
14-05-2015 17:30:00	17,057	12,777	18,523
14-05-2015 17:40:00	17,199	13,385	14,713
14-05-2015 17:50:00	16,791	13,111	14,68
14-05-2015 18:00:00	16,943	12,552	20,207
14-05-2015 18:10:00	14,769	12,589	15,295
14-05-2015 18:20:00	15,602	12,664	19,57
14-05-2015 18:30:00	15,591	12,602	15,25
14-05-2015 18:40:00	24,521	13,327	17,875
14-05-2015 18:50:00	13,934	12,758	15,329
14-05-2015 19:00:00	8,632	12,573	20,335
14-05-2015 19:10:00	8,535	12,467	19,379
14-05-2015 19:20:00	9,327	12,578	27,913
14-05-2015 19:30:00	7,894	13,102	20,595
14-05-2015 19:40:00	15,628	12,624	22,855
14-05-2015 19:50:00	8,876	12,448	19,588
14-05-2015 20:00:00	9,714	12,467	19,637
14-05-2015 20:10:00	9,752	12,627	24,035
14-05-2015 20:20:00	10,809	12,917	20,193
14-05-2015 20:30:00	11,008	12,831	21,579
14-05-2015 20:40:00	12,131	15,016	19,89
14-05-2015 20:50:00	20,086	14,59	26,399
14-05-2015 21:00:00	11,732	15,171	19,695
14-05-2015 21:10:00	12,051	14,739	24,447
14-05-2015 21:20:00	20,224	14,675	23,786
14-05-2015 21:30:00	19,777	14,733	25,852
14-05-2015 21:40:00	11,717	14,747	30,25
14-05-2015 21:50:00	11,929	11,414	16,551
14-05-2015 22:00:00	11,717	11,386	18,056
14-05-2015 22:10:00	18,58	11,237	16,566
14-05-2015 22:20:00	11,574	11,577	12,497
14-05-2015 22:30:00	11,566	11,761	13,101
14-05-2015 22:40:00	9,684	11,372	13,092
14-05-2015 22:50:00	17,179	11,11	12,549
14-05-2015 23:00:00	8,825	11,099	21,353
14-05-2015 23:10:00	9,824	6,041	11,362
14-05-2015 23:20:00	7,477	4,144	11,219
14-05-2015 23:30:00	13,076	4,137	0,97
14-05-2015 23:40:00	3,626	4,139	0,927
14-05-2015 23:50:00	6,446	4,133	0,82
15-05-2015 00:00:00	3,589	4,139	0,817
15-05-2015 00:10:00	6,117	4,135	0,742
15-05-2015 00:20:00	1,559	4,137	0,738
15-05-2015 00:30:00	1,539	4,133	0,742
15-05-2015 00:40:00	1,536	4,131	0,743
15-05-2015 00:50:00	0,112	4,133	0,744
15-05-2015 01:00:00	0,112	4,133	0,743
15-05-2015 01:10:00	1,56	4,14	0,742
15-05-2015 01:20:00	1,553	4,133	0,738
15-05-2015 01:30:00	1,562	4,133	0,735
15-05-2015 01:40:00	5,116	4,128	0,734
15-05-2015 01:50:00	5,231	4,13	0,734
15-05-2015 02:00:00	1,554	4,127	0,401
15-05-2015 02:10:00	1,556	4,131	0,4
15-05-2015 02:20:00	3,252	4,131	0,401
15-05-2015 02:30:00	5,344	4,128	0,401
15-05-2015 02:40:00	1,544	4,129	0,398
15-05-2015 02:50:00	5,206	4,129	0,398
15-05-2015 03:00:00	5,39	4,129	0,398
15-05-2015 03:10:00	1,541	4,129	0,397
15-05-2015 03:20:00	1,574	4,129	0,397
15-05-2015 03:30:00	1,552	4,128	0,396
15-05-2015 03:40:00	1,546	4,128	0,396
15-05-2015 03:50:00	1,539	4,128	0,396
15-05-2015 04:00:00	1,538	4,128	0,396
15-05-2015 04:10:00	1,539	4,127	0,396
15-05-2015 04:20:00	3,127	4,127	0,396
15-05-2015 04:30:00	1,527	4,124	0,397
15-05-2015 04:40:00	0,111	0	0,395
15-05-2015 04:50:00	0,111	0	0
15-05-2015 05:00:00	0,111	0	0
15-05-2015 05:10:00	1,521	0	0
15-05-2015 05:20:00	1,522	0	0
15-05-2015 05:30:00	1,511	0	0
15-05-2015 05:40:00	0,111	0	0
