EMS96 - Smart Log - C:\Users\peter-richard\Desktop\green vibrations.TXT

S/N: 002142940
Description: : Contrel  96
Date - Time: 19-5-2015 - 01:54:54

	Log saved:	              431
	Memory used [%]:	    38,72
	Remaining Time [min.]:	     3410

Log n 	            Date	            Time	            A L1 [A] - Max	            A L1 [A] - Average	            A L1 [A] - Min	            A L2 [A] - Max	            A L2 [A] - Average	            A L2 [A] - Min	            A L3 [A] - Max	            A L3 [A] - Average	            A L3 [A] - Min	            V L1 [V] - Max	            V L1 [V] - Average	            V L1 [V] - Min	            V L2 [V] - Max	            V L2 [V] - Average	            V L2 [V] - Min	            V L3 [V] - Max	            V L3 [V] - Average	            V L3 [V] - Min	              HZ [Hz] - Max	              HZ [Hz] - Average	              HZ [Hz] - Min

0001  	      13/05/2015	        20:00:00	        37,550	        13,633	         5,409	        1	        12,232	         2,859	        9	         8,992	         0,000	       231,143	       230,742	       230,184	       232,157	       231,174	       230,841	       231,964	       231,655	       230,732	        50,395	        50,232	        50,115
0002  	      13/05/2015	        20:05:00	        26,018	        11,416	         5,062	        2	         9,056	         4,615	        8	         4,441	         0,000	       230,973	       230,596	       229,895	       231,914	       231,273	       230,404	       232,139	       231,556	       230,958	        50,291	        50,229	        50,146
0003  	      13/05/2015	        20:10:00	        26,091	        14,447	         4,816	        3	         8,211	         4,513	        7	         4,176	         0,000	       231,165	       230,392	       229,980	       232,036	       231,707	       230,848	       231,899	       231,210	       230,873	        50,289	        50,230	        50,168
0004  	      13/05/2015	        20:15:00	        29,025	         9,153	         4,215	        4	         8,220	         4,382	        6	         4,442	         0,000	       231,188	       230,923	       229,980	       232,097	       231,240	       230,703	       231,834	       231,637	       230,873	        50,489	        50,230	        50,031
0005  	      13/05/2015	        20:20:00	        37,565	        10,698	         4,215	        5	         9,035	         0,000	        5	         6,560	         0,000	       231,553	       231,120	       230,226	       231,887	       231,378	       230,913	       231,945	       231,623	       230,973	        50,317	        50,231	        50,070
0006  	      13/05/2015	        20:25:00	        29,324	        10,121	         4,668	        6	         6,510	         1,251	        4	         5,824	         0,000	       231,079	       230,870	       229,986	       232,258	       231,539	       231,331	       231,615	       231,437	       230,776	        50,343	        50,230	        50,160
0007  	      13/05/2015	        20:30:00	        17,754	         8,160	         4,678	        7	         5,717	         2,292	        3	         4,899	         1,525	       231,305	       230,999	       229,903	       232,245	       231,449	       230,843	       232,082	       231,575	       230,751	        50,343	        50,235	        50,112
0008  	      13/05/2015	        20:35:00	        26,242	         8,716	         4,658	        8	         5,959	         2,421	        2	         5,566	         2,397	       231,291	       231,029	       230,069	       232,329	       231,516	       231,134	       231,778	       231,526	       230,656	        50,281	        50,227	        50,111
0009  	      13/05/2015	        20:40:00	        29,523	         7,466	         4,233	        9	         8,461	         3,557	        1	         5,234	         2,491	       231,406	       231,081	       230,686	       231,395	       231,035	       230,676	       232,598	       231,950	       231,654	        50,459	        50,231	        50,123
