EMS96 - Smart Log - C:\Users\peter-richard\Desktop\green vibrations.TXT

S/N: 002142940
Description: : Contrel  96
Date - Time: 19-5-2015 - 01:54:54

	Log saved:	              431
	Memory used [%]:	    38,72
	Remaining Time [min.]:	     3410

Log n 	            Date	            Time	            A L1 [A] - Max	            A L1 [A] - Average	            A L1 [A] - Min	            A L2 [A] - Max	            A L2 [A] - Average	            A L2 [A] - Min	            A L3 [A] - Max	            A L3 [A] - Average	            A L3 [A] - Min	            V L1 [V] - Max	            V L1 [V] - Average	            V L1 [V] - Min	            V L2 [V] - Max	            V L2 [V] - Average	            V L2 [V] - Min	            V L3 [V] - Max	            V L3 [V] - Average	            V L3 [V] - Min	              HZ [Hz] - Max	              HZ [Hz] - Average	              HZ [Hz] - Min

0006  	      13/05/2015	        20:25:00	        29,324	        10,121	         4,668	        6	         6,510	         1,251	        4	         5,824	         0,000	       231,079	       230,870	       229,986	       232,258	       231,539	       231,331	       231,615	       231,437	       230,776	        50,343	        50,230	        50,160
